…
homicide_df
```

    ## # A tibble: 39,693 × 14
    ##    uid   repor…¹ victi…² victi…³ victi…⁴ victi…⁵ victi…⁶ city  state   lat   lon
    ##    <chr>   <dbl> <chr>   <chr>   <fct>     <dbl> <chr>   <chr> <chr> <dbl> <dbl>
    ##  1 Alb-…  2.01e7 SATTER… VIVIANA White        15 Female  Albu… NM     35.1 -107.
    ##  2 Alb-…  2.01e7 MULA    VIVIAN  White        72 Female  Albu… NM     35.1 -107.
    ##  3 Alb-…  2.01e7 BOOK    GERALD… White        91 Female  Albu… NM     35.2 -107.
    ##  4 Alb-…  2.01e7 MARTIN… GUSTAVO White        56 Male    Albu… NM     35.1 -107.
    ##  5 Alb-…  2.01e7 LUJAN   KEVIN   White        NA Male    Albu… NM     35.1 -107.
    ##  6 Alb-…  2.01e7 GRAY    STEFAN… White        43 Female  Albu… NM     35.1 -107.
    ##  7 Alb-…  2.01e7 DAVID   LARRY   White        52 Male    Albu… NM     NA     NA 
    ##  8 Alb-…  2.01e7 BRITO   ELIZAB… White        22 Female  Albu… NM     35.1 -107.
    ##  9 Alb-…  2.01e7 KING    TEVION  Black        15 Male    Albu… NM     35.1 -107.
    ## 10 Alb-…  2.01e7 BOYKIN  CEDRIC  Black        25 Male    Albu… NM     35.1 -107.
    ## # … with 39,683 more rows, 3 more variables: disposition <chr>,
    ## #   city_state <chr>, resolved <dbl>, and abbreviated variable names
    ## #   ¹​reported_date, ²​victim_last, ³​victim_first, ⁴​victim_race, ⁵​victim_age,
    ## #   ⁶​victim_sex
…
homicide_or
```

    ## # A tibble: 47 × 5
    ##    city_state          log_or adj_or adj_or_ci_low adj_or_ci_high
    ##    <chr>                <dbl>  <dbl>         <dbl>          <dbl>
    ##  1 Albuquerque, NM  0.570      1.77          0.831          3.76 
    ##  2 Atlanta, GA      0.0000771  1.00          0.684          1.46 
    ##  3 Baltimore, MD   -0.854      0.426         0.325          0.558
    ##  4 Baton Rouge, LA -0.964      0.381         0.209          0.695
    ##  5 Birmingham, AL  -0.139      0.870         0.574          1.32 
    ##  6 Boston, MA      -0.395      0.674         0.356          1.28 
    ##  7 Buffalo, NY     -0.653      0.521         0.290          0.935
    ##  8 Charlotte, NC   -0.123      0.884         0.557          1.40 
    ##  9 Chicago, IL     -0.891      0.410         0.336          0.501
    ## 10 Cincinnati, OH  -0.917      0.400         0.236          0.677
    ## # … with 37 more rows
…
``` r
birthweight_df
```

    ## # A tibble: 4,342 × 20
    ##    babysex bhead blength   bwt delwt fincome frace gaweeks malform menarche
    ##    <fct>   <dbl>   <dbl> <dbl> <dbl>   <dbl> <fct>   <dbl> <fct>      <dbl>
    ##  1 2          34      51  3629   177      35 1        39.9 0             13
    ##  2 1          34      48  3062   156      65 2        25.9 0             14
    ##  3 2          36      50  3345   148      85 1        39.9 0             12
    ##  4 1          34      52  3062   157      55 1        40   0             14
    ##  5 2          34      52  3374   156       5 1        41.6 0             13
    ##  6 1          33      52  3374   129      55 1        40.7 0             12
    ##  7 2          33      46  2523   126      96 2        40.3 0             14
    ##  8 2          33      49  2778   140       5 1        37.4 0             12
    ##  9 1          36      52  3515   146      85 1        40.3 0             11
    ## 10 1          33      50  3459   169      75 2        40.7 0             12
    ## # … with 4,332 more rows, and 10 more variables: mheight <dbl>, momage <dbl>,
    ## #   mrace <fct>, parity <dbl>, pnumlbw <dbl>, pnumsga <dbl>, ppbmi <dbl>,
    ## #   ppwt <dbl>, smoken <dbl>, wtgain <dbl>
…
cv_df 
```

    ## # A tibble: 100 × 9
    ##    train    test     .id   hypo_model main_model inter…¹ rmse_…² rmse_…³ rmse_…⁴
    ##    <list>   <list>   <chr> <list>     <list>     <list>    <dbl>   <dbl>   <dbl>
    ##  1 <tibble> <tibble> 001   <lm>       <lm>       <lm>       275.    348.    294.
    ##  2 <tibble> <tibble> 002   <lm>       <lm>       <lm>       282.    359.    303.
    ##  3 <tibble> <tibble> 003   <lm>       <lm>       <lm>       273.    346.    293.
    ##  4 <tibble> <tibble> 004   <lm>       <lm>       <lm>       271.    336.    282.
    ##  5 <tibble> <tibble> 005   <lm>       <lm>       <lm>       264.    314.    280.
    ##  6 <tibble> <tibble> 006   <lm>       <lm>       <lm>       286.    344.    306.
    ##  7 <tibble> <tibble> 007   <lm>       <lm>       <lm>       269.    331.    283.
    ##  8 <tibble> <tibble> 008   <lm>       <lm>       <lm>       258.    306.    280.
    ##  9 <tibble> <tibble> 009   <lm>       <lm>       <lm>       271.    325.    284.
    ## 10 <tibble> <tibble> 010   <lm>       <lm>       <lm>       280.    328.    294.
    ## # … with 90 more rows, and abbreviated variable names ¹​interact_model,
    ## #   ²​rmse_hypo, ³​rmse_main, ⁴​rmse_interact
…
